…
# Estimate RMSE
metrica::RMSE(obs = example.data$obs, pred = example.data$pred)
#> [1] 2.861482

# Estimate MBE
metrica::MBE(obs = example.data$obs, pred = example.data$pred)
#> [1] -0.1134242

# Estimate metrics summary
metrica::metrics.summary(obs = example.data$obs, pred = example.data$pred)
#> # A tibble: 36 × 2
#>    Metric    value
#>    <chr>     <dbl>
#>  1 B0       0.0650
#>  2 B1       1.05  
#>  3 R2       0.897 
#>  4 CCC      0.951 
#>  5 MAE      2.28  
#>  6 MAPE   543.    
#>  7 SMAPE   55.5   
#>  8 RAE      0.320 
#>  9 RSE      0.103 
#> 10 MBE     -0.113 
#> # … with 26 more rows
```
…
