Classification case: Assessing classification quality • metrica
…
non_nested_data <- nested.examples %>% unnest(cols = "data") 

# Using group_map()
mult_sum_class_2 <- non_nested_data %>% 
  dplyr::group_by(id) %>% 
  dplyr::group_map(~metrics_summary(data = ., obs = labels, pred = predictions, type = "classification"))

# Using summarise()
mult_sum_class_3 <- non_nested_data %>% 
  dplyr::group_by(id) %>% 
  dplyr::summarise(metrics_summary(obs = labels, pred = predictions, type = "classification")) %>%
  dplyr::arrange(Metric)

mult_sum_class_1
#> # A tibble: 52 × 3
#> # Groups:   id [2]
#>    id     Metric      Score
#>    <chr>  <chr>       <dbl>
#>  1 fold_1 accuracy  0.51   
#>  2 fold_2 accuracy  0.44   
#>  3 fold_1 agf       0.559  
#>  4 fold_2 agf       0.472  
#>  5 fold_1 AUC_roc   0.569  
#>  6 fold_2 AUC_roc   0.525  
#>  7 fold_1 balacc    0.504  
#>  8 fold_2 balacc    0.438  
#>  9 fold_1 bmi       0.00898
#> 10 fold_2 bmi      -0.123  
#> # … with 42 more rows
…
#> 14         csi  0.3424658
#> 15      deltap -0.1239936
#> 16       posLr  0.7957560
#> 17       negLr  1.3117409
#> 18         dor  0.6066411
#> 19         npv  0.4130435
#> 20         FPR  0.6041667
#> 21         FNR  0.5192308
#> 22         FDR  0.5370370
#> 23         FOR  0.5869565
#> 24      preval  0.5200000
#> 25    preval_t  0.4757198
#> 26     AUC_roc  0.5251623
mult_sum_class_3
#> # A tibble: 52 × 3
#> # Groups:   id [2]
#>    id     Metric      Score
#>    <chr>  <chr>       <dbl>
#>  1 fold_1 accuracy  0.51   
#>  2 fold_2 accuracy  0.44   
#>  3 fold_1 agf       0.559  
#>  4 fold_2 agf       0.472  
#>  5 fold_1 AUC_roc   0.569  
#>  6 fold_2 AUC_roc   0.525  
#>  7 fold_1 balacc    0.504  
#>  8 fold_2 balacc    0.438  
#>  9 fold_1 bmi       0.00898
#> 10 fold_2 bmi      -0.123  
#> # … with 42 more rows
…
